Lab 4: Inference after variable selection in regression
…
generate_model_and_data <- function(X, scale_err_var) { 
        response_and_mean <- X %>% rowwise() %>% 
            mutate(mu = 0.5*X1 +0.2*X3 - 0.3*X10, 
                         y = mu + sqrt(1/scale_err_var)*rt(1, df=5)) %>% relocate(y, everything())
        
        return(list(data = response_and_mean %>% select(-mu), 
                                mu = response_and_mean %>% pull(mu)))
}

set.seed(1)
(model_and_data <- generate_model_and_data(X, 2.5))

$data
# A tibble: 100 × 26
# Rowwise: 
        y      X1      X2     X3      X4     X5      X6      X7     X8      X9
    <dbl>   <dbl>   <dbl>  <dbl>   <dbl>  <dbl>   <dbl>   <dbl>  <dbl>   <dbl>
 1 -0.364  0.185   0.569   0.587 -0.0984  1.63   0.647   0.906   0.578  1.02  
 2 -0.734 -0.472  -0.494   0.741  0.585  -0.442 -0.0976  0.658   0.483  0.670 
 3 -0.999 -2.42   -0.999  -1.95  -0.0703 -0.296  0.119  -0.408   0.485 -0.513 
 4  0.251  1.17    0.214   0.814  0.374   0.383 -0.175  -2.25    0.568 -0.519 
 5  0.114 -0.0527  0.638   1.95  -0.377   0.999 -0.903  -0.695  -0.338 -0.567 
 6 -0.273 -1.43   -0.809  -1.95  -1.20   -1.25  -0.584  -0.372  -1.12  -0.349 
 7 -0.239  0.713  -0.0712 -0.459 -0.135   0.583 -0.671   0.0880  1.11   1.11  
 8  1.65   2.02    1.40    1.76   1.94    1.16   2.07    0.636  -0.113  1.44  
 9  0.614  1.01    0.743   0.619  1.54   -1.98   0.899  -0.578  -0.186  0.459 
10  1.07   1.11   -0.249   0.468 -0.365  -0.495  0.618   1.02   -0.919 -0.0930
# ℹ 90 more rows
# ℹ 16 more variables: X10 <dbl>, X11 <dbl>, X12 <dbl>, X13 <dbl>, X14 <dbl>,
#   X15 <dbl>, X16 <dbl>, X17 <dbl>, X18 <dbl>, X19 <dbl>, X20 <dbl>,
#   X21 <dbl>, X22 <dbl>, X23 <dbl>, X24 <dbl>, X25 <dbl>
…
