Lab 3: RNA Sequencing Data
…
  gene <- c(rep("H0", num_null), rep("H1", p - num_null))
  
  return(list(data=pois_data_gen,gene=gene))
}

set.seed(2) 
ex_model_and_data <- generate_model_and_data(prop_null=0.9, de_effect=2, rho=0)

ex_model_and_data$data

# A tibble: 100 × 101
   cond  gene1 gene2 gene3 gene4 gene5 gene6 gene7 gene8 gene9 gene10 gene11
   <fct> <dbl> <dbl> <dbl> <dbl> <dbl> <dbl> <dbl> <dbl> <dbl>  <dbl>  <dbl>
 1 A         3     5     9     3     5     5     6     4    10      5      6
 2 A         7     5     4     3     3    10     7    10     4      4      3
 3 A         6     3    12     5     3     6     5     4     6      5      7
 4 A         4     4     7     1     7     7     5     7     8      3      6
 5 A         4     0     3     3     7     4     3     1     8      5      5
 6 A         4     6     3     4     5     8     3     8     3      8      2
 7 A         3     5     3     3     8     7     5     9     7      3      4
 8 A         8     5     4     9     5     8     5     5     3      5      1
 9 A         3     1     6     4     5     3     7    11     8      4      4
10 A         5     7     5     5     5     6     6     5     3      4     10
# ℹ 90 more rows
# ℹ 89 more variables: gene12 <dbl>, gene13 <dbl>, gene14 <dbl>, gene15 <dbl>,
#   gene16 <dbl>, gene17 <dbl>, gene18 <dbl>, gene19 <dbl>, gene20 <dbl>,
#   gene21 <dbl>, gene22 <dbl>, gene23 <dbl>, gene24 <dbl>, gene25 <dbl>,
#   gene26 <dbl>, gene27 <dbl>, gene28 <dbl>, gene29 <dbl>, gene30 <dbl>,
#   gene31 <dbl>, gene32 <dbl>, gene33 <dbl>, gene34 <dbl>, gene35 <dbl>,
#   gene36 <dbl>, gene37 <dbl>, gene38 <dbl>, gene39 <dbl>, gene40 <dbl>, …
…
The following function takes in a RNA-sequencing data set data of the format produced by generate_model_and_data() and returns a p-value for each gene by fitting a Poisson GLM with condition as the covariate, and testing the null hypothesis that the condition coefficient is equal to 0, and a rejection status for each gene based on thresholding the p-value at alpha.

analyze_RNAseq_data <- function(data, alpha) { 
        data %>% 
                summarize(across(-cond, function(gene) broom::tidy(glm(gene ~ cond), 
                                family="poisson")[["p.value"]][2])) %>% 
                                    tidyr::pivot_longer(cols = everything(), names_to = "gene", 
                                                                            values_to = "pval") %>% 
                                    mutate(rejects = (pval <= alpha))
}

analyze_RNAseq_data(ex_model_and_data$data, 0.1)

# A tibble: 100 × 3
   gene     pval rejects
   <chr>   <dbl> <lgl>  
 1 gene1  0.293  FALSE  
 2 gene2  0.963  FALSE  
 3 gene3  0.0462 TRUE   
 4 gene4  0.0646 TRUE   
 5 gene5  0.314  FALSE  
 6 gene6  0.245  FALSE  
 7 gene7  0.239  FALSE  
 8 gene8  0.541  FALSE  
 9 gene9  1.00   FALSE  
10 gene10 0.917  FALSE  
# ℹ 90 more rows
